Problem Set #04
…
`summarise()` has grouped output by 'name'. You can override using the
`.groups` argument.

print(result)

# A tibble: 98 × 5
# Groups:   name [98]
   name               faa   Mean_Arrival_Delay Median_Arrival_Delay FlightsCount
   <chr>              <chr>              <dbl>                <dbl>        <int>
 1 Columbia Metropol… CAE                 41.8                   28          116
 2 Tulsa Intl         TUL                 33.7                   14          315
 3 Will Rogers World  OKC                 30.6                   16          346
 4 Jackson Hole Airp… JAC                 28.1                   15           25
 5 Mc Ghee Tyson      TYS                 24.1                    2          631
 6 Dane Co Rgnl Trua… MSN                 20.2                    1          572
 7 Richmond Intl      RIC                 20.1                    1         2454
 8 Akron Canton Regi… CAK                 19.7                    3          864
 9 Des Moines Intl    DSM                 19.0                    0          569
10 Gerald R Ford Intl GRR                 18.2                    1          765
# ℹ 88 more rows
…
`summarise()` has grouped output by 'model'. You can override using the
`.groups` argument.

print(result)

# A tibble: 1 × 3
# Groups:   model [1]
  model   Average_Speed_MPH Num_Flights
  <chr>               <int>       <int>
1 DC-9-51               432          91

#confirm
planes %>% arrange(desc(speed)) %>% group_by(model)

# A tibble: 3,322 × 9
# Groups:   model [127]
   tailnum  year type              manufacturer model engines seats speed engine
   <chr>   <int> <chr>             <chr>        <chr>   <int> <int> <int> <chr> 
 1 N600TR   1979 Fixed wing multi… MCDONNELL D… DC-9…       2   139   432 Turbo…
 2 N675MC   1975 Fixed wing multi… MCDONNELL D… DC-9…       2   139   432 Turbo…
 3 N762NC   1976 Fixed wing multi… MCDONNELL D… DC-9…       2   139   432 Turbo…
 4 N767NC   1977 Fixed wing multi… MCDONNELL D… DC-9…       2   139   432 Turbo…
 5 N774NC   1978 Fixed wing multi… MCDONNELL D… DC-9…       2   139   432 Turbo…
 6 N777NC   1979 Fixed wing multi… MCDONNELL D… DC-9…       2   139   432 Turbo…
 7 N779NC   1979 Fixed wing multi… MCDONNELL D… DC-9…       2   139   432 Turbo…
 8 N782NC   1980 Fixed wing multi… MCDONNELL D… DC-9…       2   139   432 Turbo…
 9 N381AA   1956 Fixed wing multi… DOUGLAS      DC-7…       4   102   232 Recip…
10 N615AA   1967 Fixed wing multi… BEECH        65-A…       2     9   202 Turbo…
# ℹ 3,312 more rows
…
